{
	"credit": "Made with Blockbench",
	"textures": {
		"0": "dungeons_plus:item/soul_cannon",
		"particle": "dungeons_plus:item/soul_cannon_inventory"
	},
	"elements": [
		{
			"from": [5.5, 0, 5.5],
			"to": [10.5, 9, 10.5],
			"faces": {
				"north": {"uv": [0, 5, 5, 14], "texture": "#0"},
				"east": {"uv": [10, 5, 5, 14], "texture": "#0"},
				"south": {"uv": [10, 5, 15, 14], "texture": "#0"},
				"west": {"uv": [5, 5, 10, 14], "texture": "#0"},
				"up": {"uv": [10, 0, 15, 5], "texture": "#0"},
				"down": {"uv": [0, 0, 5, 5], "texture": "#0"}
			}
		}
	],
	"display": {
		"thirdperson_righthand": {
			"rotation": [-90, -180, 0],
			"translation": [0, -2, -1.75]
		},
		"thirdperson_lefthand": {
			"rotation": [-90, -180, 0],
			"translation": [0, -2, -1.75]
		},
		"firstperson_righthand": {
			"rotation": [-69, -171, 14],
			"translation": [0.75, 2.5, -2]
		},
		"firstperson_lefthand": {
			"rotation": [-69, -171, 14],
			"translation": [0.75, 2.5, -2]
		},
		"ground": {
			"rotation": [0, 0, -90],
			"translation": [2.5, 0, 0],
			"scale": [0.75, 0.75, 0.75]
		},
		"gui": {
			"rotation": [-61, -180, 152],
			"translation": [2, -1.75, 0],
			"scale": [1.3, 1.3, 1.3]
		},
		"head": {
			"rotation": [90, 0, -180],
			"translation": [0, -3.75, -8.75]
		},
		"fixed": {
			"rotation": [90, 0, -180],
			"translation": [0, 0, -6]
		}
	}
}